#
# There is insufficient memory for the Java Runtime Environment to continue.
# Native memory allocation (malloc) failed to allocate 422896 bytes for Chunk::new
# Possible reasons:
#   The system is out of physical RAM or swap space
#   The process is running with CompressedOops enabled, and the Java Heap may be blocking the growth of the native heap
# Possible solutions:
#   Reduce memory load on the system
#   Increase physical memory or swap space
#   Check if swap backing store is full
#   Decrease Java heap size (-Xmx/-Xms)
#   Decrease number of Java threads
#   Decrease Java thread stack sizes (-Xss)
#   Set larger code cache with -XX:ReservedCodeCacheSize=
#   JVM is running with Unscaled Compressed Oops mode in which the Java heap is
#     placed in the first 4GB address space. The Java Heap base address is the
#     maximum limit for the native heap growth. Please use -XX:HeapBaseMinAddress
#     to set the Java Heap base and to place the Java Heap above 4GB virtual address.
# This output file may be truncated or incomplete.
#
#  Out of Memory Error (./open/src/hotspot/share/memory/arena.cpp:197), pid=50052, tid=58032
#
# JRE version: Java(TM) SE Runtime Environment 18.9 (11.0.11+9) (build 11.0.11+9-LTS-194)
# Java VM: Java HotSpot(TM) 64-Bit Server VM 18.9 (11.0.11+9-LTS-194, mixed mode, tiered, compressed oops, g1 gc, windows-amd64)
# No core dump will be written. Minidumps are not enabled by default on client versions of Windows
#

---------------  S U M M A R Y ------------

Command Line: -Dclassworlds.conf=C:\Program Files\NetBeans-12.4\netbeans\java\maven\bin\..\bin\m2.conf -Dmaven.home=C:\Program Files\NetBeans-12.4\netbeans\java\maven\bin\.. -Dlibrary.jansi.path=C:\Program Files\NetBeans-12.4\netbeans\java\maven\bin\..\lib\jansi-native -Dmaven.multiModuleProjectDirectory=C:\Users\user\Desktop\soi\OOP\ShapeFrame org.codehaus.plexus.classworlds.launcher.Launcher -Dexec.vmArgs= -Dexec.args=${exec.vmArgs} -classpath %classpath ${exec.mainClass} ${exec.appArgs} -Dexec.executable=C:\Program Files\Java\jdk-11.0.11\bin\java.exe -Dexec.mainClass=com.soi.shapeframe.CircleFrame2 -Dexec.classpathScope=runtime -Dexec.appArgs= -Dmaven.ext.class.path=C:\Program Files\NetBeans-12.4\netbeans\java\maven-nblib\netbeans-eventspy.jar -Dfile.encoding=UTF-8 org.codehaus.mojo:exec-maven-plugin:3.0.0:exec

Host: AMD Ryzen 7 3700U with Radeon Vega Mobile Gfx  , 8 cores, 5G,  Windows 10 , 64 bit Build 19041 (10.0.19041.1202)
Time: Wed Sep 29 20:59:18 2021 SE Asia Standard Time elapsed time: 2.625934 seconds (0d 0h 0m 2s)

---------------  T H R E A D  ---------------

Current thread (0x000002a22682b000):  JavaThread "C2 CompilerThread2" daemon [_thread_in_native, id=58032, stack(0x000000cec3b00000,0x000000cec3c00000)]


Current CompileTask:
C2:   2626 2624       4       org.codehaus.plexus.util.xml.Xpp3Dom::<init> (125 bytes)

Stack: [0x000000cec3b00000,0x000000cec3c00000]
Native frames: (J=compiled Java code, j=interpreted, Vv=VM code, C=native code)
V  [jvm.dll+0x616f2a]
V  [jvm.dll+0x74de7f]
V  [jvm.dll+0x74f505]
V  [jvm.dll+0x74fb83]
V  [jvm.dll+0x2436d8]
V  [jvm.dll+0xba68c]
V  [jvm.dll+0xbad8c]
V  [jvm.dll+0x2b3ee4]
V  [jvm.dll+0x52c0f6]
V  [jvm.dll+0x1fe747]
V  [jvm.dll+0x1fc10f]
V  [jvm.dll+0x17f0bc]
V  [jvm.dll+0x20b68c]
V  [jvm.dll+0x20978b]
V  [jvm.dll+0x7152c9]
V  [jvm.dll+0x70dfc4]
V  [jvm.dll+0x6160f6]
C  [ucrtbase.dll+0x21bb2]
C  [KERNEL32.DLL+0x17034]
C  [ntdll.dll+0x52651]


---------------  P R O C E S S  ---------------

Threads class SMR info:
_java_thread_list=0x000002a22682e510, length=12, elements={
0x000002a20784a000, 0x000002a225333000, 0x000002a22533c800, 0x000002a22534e800,
0x000002a22534f800, 0x000002a225351800, 0x000002a225354800, 0x000002a22535a800,
0x000002a225e2d000, 0x000002a225e34800, 0x000002a226488000, 0x000002a22682b000
}

Java Threads: ( => current thread )
  0x000002a20784a000 JavaThread "main" [_thread_in_native, id=55436, stack(0x000000cec2900000,0x000000cec2a00000)]
  0x000002a225333000 JavaThread "Reference Handler" daemon [_thread_blocked, id=50300, stack(0x000000cec3000000,0x000000cec3100000)]
  0x000002a22533c800 JavaThread "Finalizer" daemon [_thread_blocked, id=53060, stack(0x000000cec3100000,0x000000cec3200000)]
  0x000002a22534e800 JavaThread "Signal Dispatcher" daemon [_thread_blocked, id=55888, stack(0x000000cec3200000,0x000000cec3300000)]
  0x000002a22534f800 JavaThread "Attach Listener" daemon [_thread_blocked, id=55548, stack(0x000000cec3300000,0x000000cec3400000)]
  0x000002a225351800 JavaThread "C2 CompilerThread0" daemon [_thread_blocked, id=41636, stack(0x000000cec3400000,0x000000cec3500000)]
  0x000002a225354800 JavaThread "C1 CompilerThread0" daemon [_thread_blocked, id=57960, stack(0x000000cec3500000,0x000000cec3600000)]
  0x000002a22535a800 JavaThread "Sweeper thread" daemon [_thread_blocked, id=52600, stack(0x000000cec3600000,0x000000cec3700000)]
  0x000002a225e2d000 JavaThread "Service Thread" daemon [_thread_blocked, id=50900, stack(0x000000cec3700000,0x000000cec3800000)]
  0x000002a225e34800 JavaThread "Common-Cleaner" daemon [_thread_blocked, id=54184, stack(0x000000cec3900000,0x000000cec3a00000)]
  0x000002a226488000 JavaThread "C2 CompilerThread1" daemon [_thread_blocked, id=32400, stack(0x000000cec3a00000,0x000000cec3b00000)]
=>0x000002a22682b000 JavaThread "C2 CompilerThread2" daemon [_thread_in_native, id=58032, stack(0x000000cec3b00000,0x000000cec3c00000)]

Other Threads:
  0x000002a22530f800 VMThread "VM Thread" [stack: 0x000000cec2f00000,0x000000cec3000000] [id=56640]
  0x000002a225e32000 WatcherThread [stack: 0x000000cec3800000,0x000000cec3900000] [id=40012]
  0x000002a20785e800 GCTaskThread "GC Thread#0" [stack: 0x000000cec2a00000,0x000000cec2b00000] [id=47744]
  0x000002a226f9f000 GCTaskThread "GC Thread#1" [stack: 0x000000cec3c00000,0x000000cec3d00000] [id=57520]
  0x000002a207886000 ConcurrentGCThread "G1 Main Marker" [stack: 0x000000cec2b00000,0x000000cec2c00000] [id=54752]
  0x000002a207888000 ConcurrentGCThread "G1 Conc#0" [stack: 0x000000cec2c00000,0x000000cec2d00000] [id=55352]
  0x000002a227852000 ConcurrentGCThread "G1 Conc#1" [stack: 0x000000cec3d00000,0x000000cec3e00000] [id=57852]
  0x000002a20792e000 ConcurrentGCThread "G1 Refine#0" [stack: 0x000000cec2d00000,0x000000cec2e00000] [id=55696]
  0x000002a225170800 ConcurrentGCThread "G1 Young RemSet Sampling" [stack: 0x000000cec2e00000,0x000000cec2f00000] [id=52768]

Threads with active compile tasks:
C2 CompilerThread2   2646 2624       4       org.codehaus.plexus.util.xml.Xpp3Dom::<init> (125 bytes)

VM state:not at safepoint (normal execution)

VM Mutex/Monitor currently owned by a thread: None

Heap address: 0x00000000a0c00000, size: 1524 MB, Compressed Oops mode: 32-bit
Narrow klass base: 0x0000000000000000, Narrow klass shift: 3
Compressed class space size: 1073741824 Address: 0x0000000100000000

Heap:
 garbage-first heap   total 98304K, used 15000K [0x00000000a0c00000, 0x0000000100000000)
  region size 1024K, 13 young (13312K), 4 survivors (4096K)
 Metaspace       used 20834K, capacity 21251K, committed 21552K, reserved 1069056K
  class space    used 2217K, capacity 2317K, committed 2432K, reserved 1048576K
Heap Regions: E=young(eden), S=young(survivor), O=old, HS=humongous(starts), HC=humongous(continues), CS=collection set, F=free, A=archive, TAMS=top-at-mark-start (previous, next)
|   0|0x00000000a0c00000, 0x00000000a0d00000, 0x00000000a0d00000|100%| O|  |TAMS 0x00000000a0d00000, 0x00000000a0c00000| Untracked 
|   1|0x00000000a0d00000, 0x00000000a0e00000, 0x00000000a0e00000|100%| O|  |TAMS 0x00000000a0e00000, 0x00000000a0d00000| Untracked 
|   2|0x00000000a0e00000, 0x00000000a0f00000, 0x00000000a0f00000|100%| O|  |TAMS 0x00000000a0f00000, 0x00000000a0e00000| Untracked 
|   3|0x00000000a0f00000, 0x00000000a0f30a00, 0x00000000a1000000| 18%| O|  |TAMS 0x00000000a0f30a00, 0x00000000a0f00000| Untracked 
|   4|0x00000000a1000000, 0x00000000a1000000, 0x00000000a1100000|  0%| F|  |TAMS 0x00000000a1000000, 0x00000000a1000000| Untracked 
|   5|0x00000000a1100000, 0x00000000a1100000, 0x00000000a1200000|  0%| F|  |TAMS 0x00000000a1100000, 0x00000000a1100000| Untracked 
|   6|0x00000000a1200000, 0x00000000a1200000, 0x00000000a1300000|  0%| F|  |TAMS 0x00000000a1200000, 0x00000000a1200000| Untracked 
|   7|0x00000000a1300000, 0x00000000a1300000, 0x00000000a1400000|  0%| F|  |TAMS 0x00000000a1300000, 0x00000000a1300000| Untracked 
|   8|0x00000000a1400000, 0x00000000a1400000, 0x00000000a1500000|  0%| F|  |TAMS 0x00000000a1400000, 0x00000000a1400000| Untracked 
|   9|0x00000000a1500000, 0x00000000a1500000, 0x00000000a1600000|  0%| F|  |TAMS 0x00000000a1500000, 0x00000000a1500000| Untracked 
|  10|0x00000000a1600000, 0x00000000a1600000, 0x00000000a1700000|  0%| F|  |TAMS 0x00000000a1600000, 0x00000000a1600000| Untracked 
|  11|0x00000000a1700000, 0x00000000a1700000, 0x00000000a1800000|  0%| F|  |TAMS 0x00000000a1700000, 0x00000000a1700000| Untracked 
|  12|0x00000000a1800000, 0x00000000a1800000, 0x00000000a1900000|  0%| F|  |TAMS 0x00000000a1800000, 0x00000000a1800000| Untracked 
|  13|0x00000000a1900000, 0x00000000a1900000, 0x00000000a1a00000|  0%| F|  |TAMS 0x00000000a1900000, 0x00000000a1900000| Untracked 
|  14|0x00000000a1a00000, 0x00000000a1a00000, 0x00000000a1b00000|  0%| F|  |TAMS 0x00000000a1a00000, 0x00000000a1a00000| Untracked 
|  15|0x00000000a1b00000, 0x00000000a1b00000, 0x00000000a1c00000|  0%| F|  |TAMS 0x00000000a1b00000, 0x00000000a1b00000| Untracked 
|  16|0x00000000a1c00000, 0x00000000a1c00000, 0x00000000a1d00000|  0%| F|  |TAMS 0x00000000a1c00000, 0x00000000a1c00000| Untracked 
|  17|0x00000000a1d00000, 0x00000000a1d00000, 0x00000000a1e00000|  0%| F|  |TAMS 0x00000000a1d00000, 0x00000000a1d00000| Untracked 
|  18|0x00000000a1e00000, 0x00000000a1e00000, 0x00000000a1f00000|  0%| F|  |TAMS 0x00000000a1e00000, 0x00000000a1e00000| Untracked 
|  19|0x00000000a1f00000, 0x00000000a1f00000, 0x00000000a2000000|  0%| F|  |TAMS 0x00000000a1f00000, 0x00000000a1f00000| Untracked 
|  20|0x00000000a2000000, 0x00000000a2000000, 0x00000000a2100000|  0%| F|  |TAMS 0x00000000a2000000, 0x00000000a2000000| Untracked 
|  21|0x00000000a2100000, 0x00000000a2100000, 0x00000000a2200000|  0%| F|  |TAMS 0x00000000a2100000, 0x00000000a2100000| Untracked 
|  22|0x00000000a2200000, 0x00000000a2200000, 0x00000000a2300000|  0%| F|  |TAMS 0x00000000a2200000, 0x00000000a2200000| Untracked 
|  23|0x00000000a2300000, 0x00000000a2300000, 0x00000000a2400000|  0%| F|  |TAMS 0x00000000a2300000, 0x00000000a2300000| Untracked 
|  24|0x00000000a2400000, 0x00000000a2400000, 0x00000000a2500000|  0%| F|  |TAMS 0x00000000a2400000, 0x00000000a2400000| Untracked 
|  25|0x00000000a2500000, 0x00000000a2500000, 0x00000000a2600000|  0%| F|  |TAMS 0x00000000a2500000, 0x00000000a2500000| Untracked 
|  26|0x00000000a2600000, 0x00000000a2600000, 0x00000000a2700000|  0%| F|  |TAMS 0x00000000a2600000, 0x00000000a2600000| Untracked 
|  27|0x00000000a2700000, 0x00000000a2700000, 0x00000000a2800000|  0%| F|  |TAMS 0x00000000a2700000, 0x00000000a2700000| Untracked 
|  28|0x00000000a2800000, 0x00000000a2800000, 0x00000000a2900000|  0%| F|  |TAMS 0x00000000a2800000, 0x00000000a2800000| Untracked 
|  29|0x00000000a2900000, 0x00000000a2900000, 0x00000000a2a00000|  0%| F|  |TAMS 0x00000000a2900000, 0x00000000a2900000| Untracked 
|  30|0x00000000a2a00000, 0x00000000a2a00000, 0x00000000a2b00000|  0%| F|  |TAMS 0x00000000a2a00000, 0x00000000a2a00000| Untracked 
|  31|0x00000000a2b00000, 0x00000000a2b00000, 0x00000000a2c00000|  0%| F|  |TAMS 0x00000000a2b00000, 0x00000000a2b00000| Untracked 
|  32|0x00000000a2c00000, 0x00000000a2c00000, 0x00000000a2d00000|  0%| F|  |TAMS 0x00000000a2c00000, 0x00000000a2c00000| Untracked 
|  33|0x00000000a2d00000, 0x00000000a2d00000, 0x00000000a2e00000|  0%| F|  |TAMS 0x00000000a2d00000, 0x00000000a2d00000| Untracked 
|  34|0x00000000a2e00000, 0x00000000a2e00000, 0x00000000a2f00000|  0%| F|  |TAMS 0x00000000a2e00000, 0x00000000a2e00000| Untracked 
|  35|0x00000000a2f00000, 0x00000000a2f00000, 0x00000000a3000000|  0%| F|  |TAMS 0x00000000a2f00000, 0x00000000a2f00000| Untracked 
|  36|0x00000000a3000000, 0x00000000a3000000, 0x00000000a3100000|  0%| F|  |TAMS 0x00000000a3000000, 0x00000000a3000000| Untracked 
|  37|0x00000000a3100000, 0x00000000a3100000, 0x00000000a3200000|  0%| F|  |TAMS 0x00000000a3100000, 0x00000000a3100000| Untracked 
|  38|0x00000000a3200000, 0x00000000a3200000, 0x00000000a3300000|  0%| F|  |TAMS 0x00000000a3200000, 0x00000000a3200000| Untracked 
|  39|0x00000000a3300000, 0x00000000a3300000, 0x00000000a3400000|  0%| F|  |TAMS 0x00000000a3300000, 0x00000000a3300000| Untracked 
|  40|0x00000000a3400000, 0x00000000a3400000, 0x00000000a3500000|  0%| F|  |TAMS 0x00000000a3400000, 0x00000000a3400000| Untracked 
|  41|0x00000000a3500000, 0x00000000a3500000, 0x00000000a3600000|  0%| F|  |TAMS 0x00000000a3500000, 0x00000000a3500000| Untracked 
|  42|0x00000000a3600000, 0x00000000a3600000, 0x00000000a3700000|  0%| F|  |TAMS 0x00000000a3600000, 0x00000000a3600000| Untracked 
|  43|0x00000000a3700000, 0x00000000a3700000, 0x00000000a3800000|  0%| F|  |TAMS 0x00000000a3700000, 0x00000000a3700000| Untracked 
|  44|0x00000000a3800000, 0x00000000a3800000, 0x00000000a3900000|  0%| F|  |TAMS 0x00000000a3800000, 0x00000000a3800000| Untracked 
|  45|0x00000000a3900000, 0x00000000a3900000, 0x00000000a3a00000|  0%| F|  |TAMS 0x00000000a3900000, 0x00000000a3900000| Untracked 
|  46|0x00000000a3a00000, 0x00000000a3a00000, 0x00000000a3b00000|  0%| F|  |TAMS 0x00000000a3a00000, 0x00000000a3a00000| Untracked 
|  47|0x00000000a3b00000, 0x00000000a3b00000, 0x00000000a3c00000|  0%| F|  |TAMS 0x00000000a3b00000, 0x00000000a3b00000| Untracked 
|  48|0x00000000a3c00000, 0x00000000a3c00000, 0x00000000a3d00000|  0%| F|  |TAMS 0x00000000a3c00000, 0x00000000a3c00000| Untracked 
|  49|0x00000000a3d00000, 0x00000000a3d00000, 0x00000000a3e00000|  0%| F|  |TAMS 0x00000000a3d00000, 0x00000000a3d00000| Untracked 
|  50|0x00000000a3e00000, 0x00000000a3e00000, 0x00000000a3f00000|  0%| F|  |TAMS 0x00000000a3e00000, 0x00000000a3e00000| Untracked 
|  51|0x00000000a3f00000, 0x00000000a3f00000, 0x00000000a4000000|  0%| F|  |TAMS 0x00000000a3f00000, 0x00000000a3f00000| Untracked 
|  52|0x00000000a4000000, 0x00000000a4000000, 0x00000000a4100000|  0%| F|  |TAMS 0x00000000a4000000, 0x00000000a4000000| Untracked 
|  53|0x00000000a4100000, 0x00000000a4100000, 0x00000000a4200000|  0%| F|  |TAMS 0x00000000a4100000, 0x00000000a4100000| Untracked 
|  54|0x00000000a4200000, 0x00000000a4200000, 0x00000000a4300000|  0%| F|  |TAMS 0x00000000a4200000, 0x00000000a4200000| Untracked 
|  55|0x00000000a4300000, 0x00000000a4300000, 0x00000000a4400000|  0%| F|  |TAMS 0x00000000a4300000, 0x00000000a4300000| Untracked 
|  56|0x00000000a4400000, 0x00000000a4400000, 0x00000000a4500000|  0%| F|  |TAMS 0x00000000a4400000, 0x00000000a4400000| Untracked 
|  57|0x00000000a4500000, 0x00000000a4500000, 0x00000000a4600000|  0%| F|  |TAMS 0x00000000a4500000, 0x00000000a4500000| Untracked 
|  58|0x00000000a4600000, 0x00000000a4600000, 0x00000000a4700000|  0%| F|  |TAMS 0x00000000a4600000, 0x00000000a4600000| Untracked 
|  59|0x00000000a4700000, 0x00000000a4700000, 0x00000000a4800000|  0%| F|  |TAMS 0x00000000a4700000, 0x00000000a4700000| Untracked 
|  60|0x00000000a4800000, 0x00000000a4800000, 0x00000000a4900000|  0%| F|  |TAMS 0x00000000a4800000, 0x00000000a4800000| Untracked 
|  61|0x00000000a4900000, 0x00000000a4900000, 0x00000000a4a00000|  0%| F|  |TAMS 0x00000000a4900000, 0x00000000a4900000| Untracked 
|  62|0x00000000a4a00000, 0x00000000a4a00000, 0x00000000a4b00000|  0%| F|  |TAMS 0x00000000a4a00000, 0x00000000a4a00000| Untracked 
|  63|0x00000000a4b00000, 0x00000000a4b00000, 0x00000000a4c00000|  0%| F|  |TAMS 0x00000000a4b00000, 0x00000000a4b00000| Untracked 
|  64|0x00000000a4c00000, 0x00000000a4c00000, 0x00000000a4d00000|  0%| F|  |TAMS 0x00000000a4c00000, 0x00000000a4c00000| Untracked 
|  65|0x00000000a4d00000, 0x00000000a4d00000, 0x00000000a4e00000|  0%| F|  |TAMS 0x00000000a4d00000, 0x00000000a4d00000| Untracked 
|  66|0x00000000a4e00000, 0x00000000a4e00000, 0x00000000a4f00000|  0%| F|  |TAMS 0x00000000a4e00000, 0x00000000a4e00000| Untracked 
|  67|0x00000000a4f00000, 0x00000000a4f00000, 0x00000000a5000000|  0%| F|  |TAMS 0x00000000a4f00000, 0x00000000a4f00000| Untracked 
|  68|0x00000000a5000000, 0x00000000a5000000, 0x00000000a5100000|  0%| F|  |TAMS 0x00000000a5000000, 0x00000000a5000000| Untracked 
|  69|0x00000000a5100000, 0x00000000a5100000, 0x00000000a5200000|  0%| F|  |TAMS 0x00000000a5100000, 0x00000000a5100000| Untracked 
|  70|0x00000000a5200000, 0x00000000a5200000, 0x00000000a5300000|  0%| F|  |TAMS 0x00000000a5200000, 0x00000000a5200000| Untracked 
|  71|0x00000000a5300000, 0x00000000a5300000, 0x00000000a5400000|  0%| F|  |TAMS 0x00000000a5300000, 0x00000000a5300000| Untracked 
|  72|0x00000000a5400000, 0x00000000a5400000, 0x00000000a5500000|  0%| F|  |TAMS 0x00000000a5400000, 0x00000000a5400000| Untracked 
|  73|0x00000000a5500000, 0x00000000a5500000, 0x00000000a5600000|  0%| F|  |TAMS 0x00000000a5500000, 0x00000000a5500000| Untracked 
|  74|0x00000000a5600000, 0x00000000a5600000, 0x00000000a5700000|  0%| F|  |TAMS 0x00000000a5600000, 0x00000000a5600000| Untracked 
|  75|0x00000000a5700000, 0x00000000a5700000, 0x00000000a5800000|  0%| F|  |TAMS 0x00000000a5700000, 0x00000000a5700000| Untracked 
|  76|0x00000000a5800000, 0x00000000a5800000, 0x00000000a5900000|  0%| F|  |TAMS 0x00000000a5800000, 0x00000000a5800000| Untracked 
|  77|0x00000000a5900000, 0x00000000a5900000, 0x00000000a5a00000|  0%| F|  |TAMS 0x00000000a5900000, 0x00000000a5900000| Untracked 
|  78|0x00000000a5a00000, 0x00000000a5a00000, 0x00000000a5b00000|  0%| F|  |TAMS 0x00000000a5a00000, 0x00000000a5a00000| Untracked 
|  79|0x00000000a5b00000, 0x00000000a5b00000, 0x00000000a5c00000|  0%| F|  |TAMS 0x00000000a5b00000, 0x00000000a5b00000| Untracked 
|  80|0x00000000a5c00000, 0x00000000a5c00000, 0x00000000a5d00000|  0%| F|  |TAMS 0x00000000a5c00000, 0x00000000a5c00000| Untracked 
|  81|0x00000000a5d00000, 0x00000000a5d00000, 0x00000000a5e00000|  0%| F|  |TAMS 0x00000000a5d00000, 0x00000000a5d00000| Untracked 
|  82|0x00000000a5e00000, 0x00000000a5e00000, 0x00000000a5f00000|  0%| F|  |TAMS 0x00000000a5e00000, 0x00000000a5e00000| Untracked 
|  83|0x00000000a5f00000, 0x00000000a5f82010, 0x00000000a6000000| 50%| E|  |TAMS 0x00000000a5f00000, 0x00000000a5f00000| Complete 
|  84|0x00000000a6000000, 0x00000000a6100000, 0x00000000a6100000|100%| E|CS|TAMS 0x00000000a6000000, 0x00000000a6000000| Complete 
|  85|0x00000000a6100000, 0x00000000a6200000, 0x00000000a6200000|100%| E|CS|TAMS 0x00000000a6100000, 0x00000000a6100000| Complete 
|  86|0x00000000a6200000, 0x00000000a6300000, 0x00000000a6300000|100%| E|CS|TAMS 0x00000000a6200000, 0x00000000a6200000| Complete 
|  87|0x00000000a6300000, 0x00000000a6400000, 0x00000000a6400000|100%| E|CS|TAMS 0x00000000a6300000, 0x00000000a6300000| Complete 
|  88|0x00000000a6400000, 0x00000000a64757e0, 0x00000000a6500000| 45%| S|CS|TAMS 0x00000000a6400000, 0x00000000a6400000| Complete 
|  89|0x00000000a6500000, 0x00000000a6600000, 0x00000000a6600000|100%| S|CS|TAMS 0x00000000a6500000, 0x00000000a6500000| Complete 
|  90|0x00000000a6600000, 0x00000000a6700000, 0x00000000a6700000|100%| S|CS|TAMS 0x00000000a6600000, 0x00000000a6600000| Complete 
|  91|0x00000000a6700000, 0x00000000a6800000, 0x00000000a6800000|100%| S|CS|TAMS 0x00000000a6700000, 0x00000000a6700000| Complete 
|  92|0x00000000a6800000, 0x00000000a6900000, 0x00000000a6900000|100%| E|CS|TAMS 0x00000000a6800000, 0x00000000a6800000| Complete 
|  93|0x00000000a6900000, 0x00000000a6a00000, 0x00000000a6a00000|100%| E|CS|TAMS 0x00000000a6900000, 0x00000000a6900000| Complete 
|  94|0x00000000a6a00000, 0x00000000a6b00000, 0x00000000a6b00000|100%| E|CS|TAMS 0x00000000a6a00000, 0x00000000a6a00000| Complete 
|  95|0x00000000a6b00000, 0x00000000a6c00000, 0x00000000a6c00000|100%| E|CS|TAMS 0x00000000a6b00000, 0x00000000a6b00000| Complete 

Card table byte_map: [0x000002a21f330000,0x000002a21f630000] _byte_map_base: 0x000002a21ee2a000

Marking Bits (Prev, Next): (CMBitMap*) 0x000002a20787f000, (CMBitMap*) 0x000002a20787efc8
 Prev Bits: [0x000002a221100000, 0x000002a2228d0000)
 Next Bits: [0x000002a21f930000, 0x000002a221100000)

Polling page: 0x000002a2057c0000

Metaspace:

Usage:
  Non-class:     18.49 MB capacity,    18.18 MB ( 98%) used,   290.72 KB (  2%) free+waste,    23.31 KB ( <1%) overhead. 
      Class:      2.26 MB capacity,     2.17 MB ( 96%) used,    90.54 KB (  4%) free+waste,     9.19 KB ( <1%) overhead. 
       Both:     20.75 MB capacity,    20.35 MB ( 98%) used,   381.26 KB (  2%) free+waste,    32.50 KB ( <1%) overhead. 

Virtual space:
  Non-class space:       20.00 MB reserved,      18.67 MB ( 93%) committed 
      Class space:        1.00 GB reserved,       2.38 MB ( <1%) committed 
             Both:        1.02 GB reserved,      21.05 MB (  2%) committed 

Chunk freelists:
   Non-Class:  1.25 KB
       Class:  2.38 KB
        Both:  3.63 KB

CodeHeap 'non-profiled nmethods': size=120000Kb used=1226Kb max_used=1226Kb free=118773Kb
 bounds [0x000002a2177d0000, 0x000002a217a40000, 0x000002a21ed00000]
CodeHeap 'profiled nmethods': size=120000Kb used=5468Kb max_used=5468Kb free=114531Kb
 bounds [0x000002a2102a0000, 0x000002a210800000, 0x000002a2177d0000]
CodeHeap 'non-nmethods': size=5760Kb used=1112Kb max_used=1142Kb free=4647Kb
 bounds [0x000002a20fd00000, 0x000002a20ff70000, 0x000002a2102a0000]
 total_blobs=3136 nmethods=2710 adapters=336
 compilation: enabled
              stopped_count=0, restarted_count=0
 full_count=0

Compilation events (10 events):
Event: 2.622 Thread 0x000002a225354800 nmethod 2648 0x000002a2107e3590 code [0x000002a2107e3760, 0x000002a2107e3ac8]
Event: 2.622 Thread 0x000002a225354800 2649       3       java.lang.String::trim (35 bytes)
Event: 2.622 Thread 0x000002a226488000 2651       4       java.lang.StringLatin1::trim (76 bytes)
Event: 2.623 Thread 0x000002a225354800 nmethod 2649 0x000002a2107e3c10 code [0x000002a2107e3de0, 0x000002a2107e40b8]
Event: 2.623 Thread 0x000002a225354800 2650       3       org.codehaus.plexus.util.xml.pull.MXParser::getText (125 bytes)
Event: 2.623 Thread 0x000002a225354800 nmethod 2650 0x000002a2107e4190 code [0x000002a2107e43c0, 0x000002a2107e4b58]
Event: 2.623 Thread 0x000002a225354800 2652       3       org.apache.maven.model.Contributor::<init> (5 bytes)
Event: 2.623 Thread 0x000002a225354800 nmethod 2652 0x000002a2107e4d90 code [0x000002a2107e4f40, 0x000002a2107e5098]
Event: 2.623 Thread 0x000002a225351800 2653       4       org.apache.maven.model.io.xpp3.MavenXpp3Reader::interpolatedTrimmed (16 bytes)
Event: 2.623 Thread 0x000002a225354800 2654       3       org.codehaus.plexus.util.xml.pull.MXParser::ensureAttributesCapacity (206 bytes)

GC Heap History (6 events):
Event: 0.723 GC heap before
{Heap before GC invocations=0 (full 0):
 garbage-first heap   total 98304K, used 23552K [0x00000000a0c00000, 0x0000000100000000)
  region size 1024K, 24 young (24576K), 0 survivors (0K)
 Metaspace       used 12499K, capacity 12661K, committed 12928K, reserved 1060864K
  class space    used 1262K, capacity 1348K, committed 1408K, reserved 1048576K
}
Event: 0.730 GC heap after
{Heap after GC invocations=1 (full 0):
 garbage-first heap   total 98304K, used 3500K [0x00000000a0c00000, 0x0000000100000000)
  region size 1024K, 3 young (3072K), 3 survivors (3072K)
 Metaspace       used 12499K, capacity 12661K, committed 12928K, reserved 1060864K
  class space    used 1262K, capacity 1348K, committed 1408K, reserved 1048576K
}
Event: 2.340 GC heap before
{Heap before GC invocations=1 (full 0):
 garbage-first heap   total 98304K, used 58796K [0x00000000a0c00000, 0x0000000100000000)
  region size 1024K, 57 young (58368K), 3 survivors (3072K)
 Metaspace       used 20663K, capacity 21056K, committed 21296K, reserved 1069056K
  class space    used 2214K, capacity 2316K, committed 2432K, reserved 1048576K
}
Event: 2.357 GC heap after
{Heap after GC invocations=2 (full 0):
 garbage-first heap   total 98304K, used 6572K [0x00000000a0c00000, 0x0000000100000000)
  region size 1024K, 6 young (6144K), 6 survivors (6144K)
 Metaspace       used 20663K, capacity 21056K, committed 21296K, reserved 1069056K
  class space    used 2214K, capacity 2316K, committed 2432K, reserved 1048576K
}
Event: 2.449 GC heap before
{Heap before GC invocations=2 (full 0):
 garbage-first heap   total 98304K, used 9644K [0x00000000a0c00000, 0x0000000100000000)
  region size 1024K, 10 young (10240K), 6 survivors (6144K)
 Metaspace       used 20729K, capacity 21123K, committed 21296K, reserved 1069056K
  class space    used 2216K, capacity 2317K, committed 2432K, reserved 1048576K
}
Event: 2.462 GC heap after
{Heap after GC invocations=3 (full 0):
 garbage-first heap   total 98304K, used 6808K [0x00000000a0c00000, 0x0000000100000000)
  region size 1024K, 4 young (4096K), 4 survivors (4096K)
 Metaspace       used 20729K, capacity 21123K, committed 21296K, reserved 1069056K
  class space    used 2216K, capacity 2317K, committed 2432K, reserved 1048576K
}

Deoptimization events (10 events):
Event: 2.592 Thread 0x000002a20784a000 Uncommon trap: reason=array_check action=maybe_recompile pc=0x000002a2178e9298 method=java.util.AbstractCollection.toArray([Ljava/lang/Object;)[Ljava/lang/Object; @ 116 c2
Event: 2.596 Thread 0x000002a20784a000 Uncommon trap: reason=class_check action=maybe_recompile pc=0x000002a2178bd8f8 method=java.nio.charset.CharsetDecoder.decode(Ljava/nio/ByteBuffer;Ljava/nio/CharBuffer;Z)Ljava/nio/charset/CoderResult; @ 57 c2
Event: 2.597 Thread 0x000002a20784a000 Uncommon trap: reason=class_check action=maybe_recompile pc=0x000002a21782d7f4 method=java.nio.charset.CharsetDecoder.decode(Ljava/nio/ByteBuffer;Ljava/nio/CharBuffer;Z)Ljava/nio/charset/CoderResult; @ 57 c2
Event: 2.597 Thread 0x000002a20784a000 Uncommon trap: reason=class_check action=maybe_recompile pc=0x000002a2178bd8f8 method=java.nio.charset.CharsetDecoder.decode(Ljava/nio/ByteBuffer;Ljava/nio/CharBuffer;Z)Ljava/nio/charset/CoderResult; @ 57 c2
Event: 2.598 Thread 0x000002a20784a000 Uncommon trap: reason=class_check action=maybe_recompile pc=0x000002a21782d7f4 method=java.nio.charset.CharsetDecoder.decode(Ljava/nio/ByteBuffer;Ljava/nio/CharBuffer;Z)Ljava/nio/charset/CoderResult; @ 57 c2
Event: 2.598 Thread 0x000002a20784a000 Uncommon trap: reason=class_check action=maybe_recompile pc=0x000002a2178bd8f8 method=java.nio.charset.CharsetDecoder.decode(Ljava/nio/ByteBuffer;Ljava/nio/CharBuffer;Z)Ljava/nio/charset/CoderResult; @ 57 c2
Event: 2.601 Thread 0x000002a20784a000 Uncommon trap: reason=unstable_if action=reinterpret pc=0x000002a2178ed864 method=org.apache.maven.model.io.xpp3.MavenXpp3Reader.nextTag(Lorg/codehaus/plexus/util/xml/pull/XmlPullParser;)I @ 9 c2
Event: 2.608 Thread 0x000002a20784a000 Uncommon trap: reason=unstable_if action=reinterpret pc=0x000002a2178eb64c method=org.apache.maven.model.ConfigurationContainer.getLocation(Ljava/lang/Object;)Lorg/apache/maven/model/InputLocation; @ 18 c2
Event: 2.622 Thread 0x000002a20784a000 Uncommon trap: reason=unstable_if action=reinterpret pc=0x000002a2178d7a6c method=java.lang.StringUTF16.compress([CII)[B @ 13 c2
Event: 2.622 Thread 0x000002a20784a000 Uncommon trap: reason=unstable_if action=reinterpret pc=0x000002a2178d2cd8 method=java.lang.String.trim()Ljava/lang/String; @ 4 c2

Classes redefined (0 events):
No events

Internal exceptions (6 events):
Event: 0.213 Thread 0x000002a20784a000 Exception <a 'java/lang/NoSuchMethodError'{0x00000000a685adc8}: java.lang.invoke.DirectMethodHandle$Holder.invokeSpecialIFC(Ljava/lang/Object;Ljava/lang/Object;I)I> (0x00000000a685adc8) thrown at [./open/src/hotspot/share/interpreter/linkResolver.cpp, lin
Event: 1.406 Thread 0x000002a20784a000 Exception <a 'java/lang/NoClassDefFoundError'{0x00000000a45dcd50}: com/google/inject/servlet/ServletModuleTargetVisitor> (0x00000000a45dcd50) thrown at [./open/src/hotspot/share/classfile/systemDictionary.cpp, line 217]
Event: 1.406 Thread 0x000002a20784a000 Exception <a 'java/lang/NoClassDefFoundError'{0x00000000a45dcd50}> (0x00000000a45dcd50) thrown at [./open/src/hotspot/share/prims/jvm.cpp, line 1309]
Event: 1.406 Thread 0x000002a20784a000 Exception <a 'java/lang/NoClassDefFoundError'{0x00000000a45dfd18}: javax/annotation/Priority> (0x00000000a45dfd18) thrown at [./open/src/hotspot/share/classfile/systemDictionary.cpp, line 217]
Event: 1.473 Thread 0x000002a20784a000 Exception <a 'java/lang/NoSuchMethodError'{0x00000000a4244f58}: java.lang.invoke.DirectMethodHandle$Holder.invokeStaticInit(Ljava/lang/Object;IIII)Ljava/lang/Object;> (0x00000000a4244f58) thrown at [./open/src/hotspot/share/interpreter/linkResolver.cpp, l
Event: 2.186 Thread 0x000002a20784a000 Implicit null exception at 0x000002a21785d1d5 to 0x000002a21785d384

Events (10 events):
Event: 2.601 Thread 0x000002a20784a000 DEOPT UNPACKING pc=0x000002a20fd2662f sp=0x000000cec29fd130 mode 2
Event: 2.608 Thread 0x000002a20784a000 Uncommon trap: trap_request=0xffffff4d fr.pc=0x000002a2178eb64c relative=0x000000000000036c
Event: 2.608 Thread 0x000002a20784a000 DEOPT PACKING pc=0x000002a2178eb64c sp=0x000000cec29fd030
Event: 2.608 Thread 0x000002a20784a000 DEOPT UNPACKING pc=0x000002a20fd2662f sp=0x000000cec29fcfd0 mode 2
Event: 2.622 Thread 0x000002a20784a000 Uncommon trap: trap_request=0xffffff4d fr.pc=0x000002a2178d7a6c relative=0x0000000000000a0c
Event: 2.622 Thread 0x000002a20784a000 DEOPT PACKING pc=0x000002a2178d7a6c sp=0x000000cec29fd240
Event: 2.622 Thread 0x000002a20784a000 DEOPT UNPACKING pc=0x000002a20fd2662f sp=0x000000cec29fd0a8 mode 2
Event: 2.622 Thread 0x000002a20784a000 Uncommon trap: trap_request=0xffffff4d fr.pc=0x000002a2178d2cd8 relative=0x0000000000000518
Event: 2.622 Thread 0x000002a20784a000 DEOPT PACKING pc=0x000002a2178d2cd8 sp=0x000000cec29fd230
Event: 2.622 Thread 0x000002a20784a000 DEOPT UNPACKING pc=0x000002a20fd2662f sp=0x000000cec29fd210 mode 2


Dynamic libraries:
0x00007ff7cbbb0000 - 0x00007ff7cbbbf000 	C:\Program Files\Java\jdk-11.0.11\bin\java.exe
0x00007fff24ed0000 - 0x00007fff250c5000 	C:\WINDOWS\SYSTEM32\ntdll.dll
0x00007fff23340000 - 0x00007fff233fe000 	C:\WINDOWS\System32\KERNEL32.DLL
0x00007fff22640000 - 0x00007fff22909000 	C:\WINDOWS\System32\KERNELBASE.dll
0x00007fff22c50000 - 0x00007fff22d50000 	C:\WINDOWS\System32\ucrtbase.dll
0x00007fff17e30000 - 0x00007fff17e45000 	C:\Program Files\Java\jdk-11.0.11\bin\VCRUNTIME140.dll
0x00007fff1d3b0000 - 0x00007fff1d3c8000 	C:\Program Files\Java\jdk-11.0.11\bin\jli.dll
0x00007fff23d80000 - 0x00007fff23e2c000 	C:\WINDOWS\System32\ADVAPI32.dll
0x00007fff22f20000 - 0x00007fff22fbe000 	C:\WINDOWS\System32\msvcrt.dll
0x00007fff235d0000 - 0x00007fff2366b000 	C:\WINDOWS\System32\sechost.dll
0x00007fff23100000 - 0x00007fff2322a000 	C:\WINDOWS\System32\RPCRT4.dll
0x00007fff23a20000 - 0x00007fff23bc1000 	C:\WINDOWS\System32\USER32.dll
0x00007fff12710000 - 0x00007fff129aa000 	C:\WINDOWS\WinSxS\amd64_microsoft.windows.common-controls_6595b64144ccf1df_6.0.19041.1110_none_60b5254171f9507e\COMCTL32.dll
0x00007fff22de0000 - 0x00007fff22e02000 	C:\WINDOWS\System32\win32u.dll
0x00007fff22fc0000 - 0x00007fff22feb000 	C:\WINDOWS\System32\GDI32.dll
0x00007fff22b40000 - 0x00007fff22c4b000 	C:\WINDOWS\System32\gdi32full.dll
0x00007fff22aa0000 - 0x00007fff22b3d000 	C:\WINDOWS\System32\msvcp_win.dll
0x00007fff1ac30000 - 0x00007fff1ac3a000 	C:\WINDOWS\SYSTEM32\VERSION.dll
0x00007fff23060000 - 0x00007fff23090000 	C:\WINDOWS\System32\IMM32.DLL
0x00007ffef5a30000 - 0x00007ffef5acb000 	C:\Program Files\Java\jdk-11.0.11\bin\msvcp140.dll
0x00007ffede8b0000 - 0x00007ffedf3ae000 	C:\Program Files\Java\jdk-11.0.11\bin\server\jvm.dll
0x00007fff230f0000 - 0x00007fff230f8000 	C:\WINDOWS\System32\PSAPI.DLL
0x00007fff1cb30000 - 0x00007fff1cb39000 	C:\WINDOWS\SYSTEM32\WSOCK32.dll
0x00007fff186a0000 - 0x00007fff186c7000 	C:\WINDOWS\SYSTEM32\WINMM.dll
0x00007fff22ff0000 - 0x00007fff2305b000 	C:\WINDOWS\System32\WS2_32.dll
0x00007fff204f0000 - 0x00007fff20502000 	C:\WINDOWS\SYSTEM32\kernel.appcore.dll
0x00007fff1cae0000 - 0x00007fff1caf0000 	C:\Program Files\Java\jdk-11.0.11\bin\verify.dll
0x00007fff0b3a0000 - 0x00007fff0b584000 	C:\WINDOWS\SYSTEM32\DBGHELP.DLL
0x00007fff0b0e0000 - 0x00007fff0b10c000 	C:\WINDOWS\SYSTEM32\dbgcore.DLL
0x00007fff22d50000 - 0x00007fff22dd3000 	C:\WINDOWS\System32\bcryptPrimitives.dll
0x00007fff16db0000 - 0x00007fff16dd8000 	C:\Program Files\Java\jdk-11.0.11\bin\java.dll
0x00007fff1c880000 - 0x00007fff1c88a000 	C:\Program Files\Java\jdk-11.0.11\bin\jimage.dll
0x00007fff16f60000 - 0x00007fff16f76000 	C:\Program Files\Java\jdk-11.0.11\bin\zip.dll
0x00007fff23e30000 - 0x00007fff2456f000 	C:\WINDOWS\System32\SHELL32.dll
0x00007fff206f0000 - 0x00007fff20e80000 	C:\WINDOWS\SYSTEM32\windows.storage.dll
0x00007fff24ac0000 - 0x00007fff24e15000 	C:\WINDOWS\System32\combase.dll
0x00007fff21f70000 - 0x00007fff21f9c000 	C:\WINDOWS\SYSTEM32\Wldp.dll
0x00007fff23290000 - 0x00007fff2333e000 	C:\WINDOWS\System32\SHCORE.dll
0x00007fff23490000 - 0x00007fff234e5000 	C:\WINDOWS\System32\shlwapi.dll
0x00007fff22530000 - 0x00007fff2254f000 	C:\WINDOWS\SYSTEM32\profapi.dll
0x00007fff16d00000 - 0x00007fff16d19000 	C:\Program Files\Java\jdk-11.0.11\bin\net.dll
0x00007fff12c70000 - 0x00007fff12d78000 	C:\WINDOWS\SYSTEM32\WINHTTP.dll
0x00007fff21cd0000 - 0x00007fff21d3a000 	C:\WINDOWS\system32\mswsock.dll
0x00007fff13db0000 - 0x00007fff13dc2000 	C:\Program Files\Java\jdk-11.0.11\bin\nio.dll
0x00007fff1d370000 - 0x00007fff1d37a000 	C:\Program Files\NetBeans-12.4\netbeans\java\maven\lib\jansi-native\windows64\jansi.dll

dbghelp: loaded successfully - version: 4.0.5 - missing functions: none
symbol engine: initialized successfully - sym options: 0x614 - pdb path: .;C:\Program Files\Java\jdk-11.0.11\bin;C:\WINDOWS\SYSTEM32;C:\WINDOWS\WinSxS\amd64_microsoft.windows.common-controls_6595b64144ccf1df_6.0.19041.1110_none_60b5254171f9507e;C:\Program Files\Java\jdk-11.0.11\bin\server;C:\Program Files\NetBeans-12.4\netbeans\java\maven\lib\jansi-native\windows64

VM Arguments:
jvm_args: -Dclassworlds.conf=C:\Program Files\NetBeans-12.4\netbeans\java\maven\bin\..\bin\m2.conf -Dmaven.home=C:\Program Files\NetBeans-12.4\netbeans\java\maven\bin\.. -Dlibrary.jansi.path=C:\Program Files\NetBeans-12.4\netbeans\java\maven\bin\..\lib\jansi-native -Dmaven.multiModuleProjectDirectory=C:\Users\user\Desktop\soi\OOP\ShapeFrame 
java_command: org.codehaus.plexus.classworlds.launcher.Launcher -Dexec.vmArgs= -Dexec.args=${exec.vmArgs} -classpath %classpath ${exec.mainClass} ${exec.appArgs} -Dexec.executable=C:\Program Files\Java\jdk-11.0.11\bin\java.exe -Dexec.mainClass=com.soi.shapeframe.CircleFrame2 -Dexec.classpathScope=runtime -Dexec.appArgs= -Dmaven.ext.class.path=C:\Program Files\NetBeans-12.4\netbeans\java\maven-nblib\netbeans-eventspy.jar -Dfile.encoding=UTF-8 org.codehaus.mojo:exec-maven-plugin:3.0.0:exec
java_class_path (initial): C:\Program Files\NetBeans-12.4\netbeans\java\maven\bin\..\boot\plexus-classworlds-2.6.0.jar
Launcher Type: SUN_STANDARD

[Global flags]
     intx CICompilerCount                          = 4                                         {product} {ergonomic}
     uint ConcGCThreads                            = 2                                         {product} {ergonomic}
     uint G1ConcRefinementThreads                  = 8                                         {product} {ergonomic}
   size_t G1HeapRegionSize                         = 1048576                                   {product} {ergonomic}
    uintx GCDrainStackTargetSize                   = 64                                        {product} {ergonomic}
   size_t InitialHeapSize                          = 100663296                                 {product} {ergonomic}
   size_t MarkStackSize                            = 4194304                                   {product} {ergonomic}
   size_t MaxHeapSize                              = 1598029824                                {product} {ergonomic}
   size_t MaxNewSize                               = 958398464                                 {product} {ergonomic}
   size_t MinHeapDeltaBytes                        = 1048576                                   {product} {ergonomic}
    uintx NonNMethodCodeHeapSize                   = 5836300                                {pd product} {ergonomic}
    uintx NonProfiledCodeHeapSize                  = 122910970                              {pd product} {ergonomic}
    uintx ProfiledCodeHeapSize                     = 122910970                              {pd product} {ergonomic}
    uintx ReservedCodeCacheSize                    = 251658240                              {pd product} {ergonomic}
     bool SegmentedCodeCache                       = true                                      {product} {ergonomic}
     bool UseCompressedClassPointers               = true                                 {lp64_product} {ergonomic}
     bool UseCompressedOops                        = true                                 {lp64_product} {ergonomic}
     bool UseG1GC                                  = true                                      {product} {ergonomic}
     bool UseLargePagesIndividualAllocation        = false                                  {pd product} {ergonomic}

Logging:
Log output configuration:
 #0: stdout all=warning uptime,level,tags
 #1: stderr all=off uptime,level,tags

Environment Variables:
JAVA_HOME=C:\Program Files\Java\jdk-11.0.11
PATH=C:\Program Files\Common Files\Oracle\Java\javapath;C:\WINDOWS\system32;C:\WINDOWS;C:\WINDOWS\System32\Wbem;C:\WINDOWS\System32\WindowsPowerShell\v1.0\;C:\WINDOWS\System32\OpenSSH\;C:\Program Files\Intel\WiFi\bin\;C:\Program Files\Common Files\Intel\WirelessCommon\;C:\Program Files\Git\cmd;C:\Program Files\Java\jdk-11.0.11\bin;C:\Program Files\dotnet\;C:\Program Files\Microsoft SQL Server\130\Tools\Binn\;C:\Program Files\Microsoft SQL Server\Client SDK\ODBC\170\Tools\Binn\;C:\Users\user\AppData\Local\Microsoft\WindowsApps;C:\Users\user\.dotnet\tools
USERNAME=user
OS=Windows_NT
PROCESSOR_IDENTIFIER=AMD64 Family 23 Model 24 Stepping 1, AuthenticAMD



---------------  S Y S T E M  ---------------

OS: Windows 10 , 64 bit Build 19041 (10.0.19041.1202)

CPU:total 8 (initial active 8) (8 cores per cpu, 2 threads per core) family 23 model 24 stepping 1 microcode 0x0, cmov, cx8, fxsr, mmx, sse, sse2, sse3, ssse3, sse4.1, sse4.2, popcnt, avx, avx2, aes, clmul, mmxext, 3dnowpref, lzcnt, sse4a, ht, tsc, tscinvbit, tscinv, bmi1, bmi2, adx, s

Memory: 4k page, system-wide physical 6091M (805M free)
TotalPageFile size 24523M (AvailPageFile size 2M)
current process WorkingSet (physical memory assigned to process): 142M, peak: 144M
current process commit charge ("private bytes"): 213M, peak: 217M

vm_info: Java HotSpot(TM) 64-Bit Server VM (11.0.11+9-LTS-194) for windows-amd64 JRE (11.0.11+9-LTS-194), built on Mar 18 2021 18:46:53 by "mach5one" with MS VC++ 15.9 (VS2017)

END.
